--2020-05-17 16:35:12--  http://www.uptc.edu.co/export/sites/default/comunicaciones/manual/doc/2016/colorpng.zip
Resolviendo www.uptc.edu.co (www.uptc.edu.co)... 132.255.20.6
Conectando con www.uptc.edu.co (www.uptc.edu.co)[132.255.20.6]:80... conectado.
Petición HTTP enviada, esperando respuesta... 404 
2020-05-17 16:35:12 ERROR 404: (sin descripción).

holaa
